{
	"extension_description": {
		"message": "Smarte Referer überall!"
	},
	
	
	"menu_options": {
        "message": "Einstellungen…"
    },
	
	
	
	"options_enable_label": {
		"message": "Smart Referer Aktivieren"
	},
	
	"options_icon_color_mode_label": {
		"message": "Ersatzfarbe des Symbolleisten-Symbols"
	},
	
	"options_icon_color_mode_description": {
		"message": "Der gewählte Farbwert wird nur verwendet, wenn kein kompatibles Theme aktiv ist."
	},
	
	"options_icon_color_mode_managed": {
		"message": "Das aktive Theme stellt die benötigten Farbinformationen bereit, daher ist keine weitere Konfiguration erforderlich."
	},
	
	"options_icon_color_mode_system": {
		"message": "System-Textfarbe"
	},
	
	"options_icon_color_mode_default": {
		"message": "Farben der Standard “Dunkel” & “Hell” Themes"
	},
	
	"options_icon_color_mode_custom": {
		"message": "Andere Farbe:"
	},
	
	"options_strictness_label": {
		"message": "Schärfe des Domain&shy;namens&shy;abgleichs (Nur\u00A0für\u00A0Testzwecke)"
	},
	
	"options_strictness_description": {
		"message": "Legt fest ob Unterdomains der selben Basisdomain als verschiedene Webseiten gelten (Sollen <code>a.example.com</code> und <code>b.example.com</code> als Webseiten verschiender Anbieter betrachtet werden?)"
	},
	
	"options_strictness_disclaimer": {
		"message":     "Diese Funktion sollte nicht verwendet werden, außer Sie sind bereit die entstehenden Probleme selbstständig zu lösen!",
		"description": "Message reinforcing that changing the strictness option is not really supported"
	},
	
	"options_strictness_lax_label": {
		"message": "Gleiche Webseite (Nachdrücklichst empfohlen)"
	},
	
	"options_strictness_lax_description": {
		"message": "Verschiedene Unterdomains der selben Basisdomain als Teil der gleichen Webseite betrachten."
	},
	
	"options_strictness_strict_label": {
		"message": "Streng"
	},
	
	"options_strictness_strict_description": {
		"message": "Verschiedene Unterdomains der selben Basisdomain als verschiedenen Webseiten zugehörig betrachten."
	},
	
	"options_strictness_inf_label": {
		"message": "Niemals"
	},
	
	"options_strictness_inf_description": {
		"message": "Alle Resourcen als Teile verschiedener Webseiten betrachten, selbst wenn sie von der exakt gleichen Quelle stammen."
	},
	
	"options_allow_label": {
		"message": "Ausnahmen"
	},
	
	"options_allow_description": {
		"message": "Referer-Header immer zwischen den eingetragenen Quell- und Ziel-Hosts erlauben"
	},
	
	"options_allow_heading_source": {
		"message": "Quelle"
	},
	
	"options_allow_heading_destination": {
		"message": "Ziel"
	},
	
	"options_allow_explanation": {
		"message": "<ul><li>Sowohl Quell- als auch Ziel-Hosts dürfen Wildcard-Muster enthalten: <code>example.*</code> stimmt mit allen Domains überein die <code>example</code> als zweites Domain-Label enthalten (zB: <code>example.com</code>, <code>example.org</code>, <code>example.net</code>, …, aber nicht <code>example2.org</code>).</li><li>Hostnamen mit einem Punkt (<code>.</code>) als erstem Zeichen stimmen sowohl mit der Basis-Domain, als auch mit allen Unterdomains überein: <code>.example.org</code> stimmt sowohl mit <code>example.org</code> als auch <code>bla.bla.example.org</code> überein.</li><li>Ein einzelner Stern (<code>*</code>) bedeutet „Alle Hosts“.</li></ul>"
	},
	
	"options_whitelist_label": {
		"message": "Whitelist-Quellen"
	},
	
	"options_whitelist_sources_heading": {
		"message": "Benutzerdefinierte Whitelist-URLs"
	},
	
	"options_whitelist_default_label": {
		"message":     "Standard-Whitelist verwenden (<a target=\"_blank\" rel=\"noopener noreferrer\" href=\"$URL$\">Ansehen</a>)",
		"placeholders": {
			"url" : {
				"content" : "$1"
			}
		}
	},
	
	"options_item_add.title": {
		"message": "Eintrag hinzufügen"
	},
	
	"options_item_remove.title": {
		"message": "Eintrag entfernen"
	},
	
	"options_mode_label": {
		"message": "Ersetzungsmodus"
	},
	
	"options_mode_self": {
		"message": "URL der Zielseite senden (empfohlen)"
	},
	
	"options_mode_direct": {
		"message": "Nichts senden, ähnlich einem direktem Seitenaufruf"
	},
	
	"options_mode_user": {
		"message": "Immer den folgenden Wert verwenden:"
	},
	
	"options_mode_referer.title": {
		"message": "Benutzerdefinierter Referer Wert"
	},
	
	
	
	"icon_title_enabled": {
		"message": "Aktiviert"
	},
	
	"icon_title_disabled": {
		"message": "Deaktiviert"
	},
	
	
	
	"log_blocked_http": {
		"message": "Blockiere HTTP-Referer „$SOURCE$“ für „$TARGET$“",
		"placeholders": {
			"source": {
				"content": "%s"
			},
			
			"target": {
				"content": "%s"
			}
		}
	},
	
	"log_blocked_script": {
		"message": "Blockiere Skript-Referer „$SOURCE$“ für „$TARGET$“",
		"placeholders": {
			"source": {
				"content": "%s"
			},
			
			"target": {
				"content": "%s"
			}
		}
	},
	
	"log_whitelist_update_failed": {
		"message": "Herunterladen der Whitelist „$URL$“ fehlgeschlagen:",
		"placeholders": {
			"url" : {
				"content": "%s"
			}
		}
	},
	
	"log_whitelist_update_finished": {
		"message": "Whitelist mit $COUNT$ Einträgen erzeugt: $JSLIST$",
		"placeholders": {
			"count" : {
				"content": "%d"
			},
			
			"jslist" : {
				"content": "%o"
			}
		}
	}
}
